{
    "version": "1.0.0",
    "summary": "Client for the heyinstead service.",
    "repository": "https://github.com/neganp/heyinstead-client.git",
    "license": "Private",
    "source-directories": [
        "elm-src"
    ],
    "exposed-modules": [],
    "dependencies": {
        "elm-lang/core": "5.1.1 <= v < 6.0.0",
        "elm-lang/html": "2.0.0 <= v < 3.0.0"
    },
    "elm-version": "0.18.0 <= v < 0.19.0"
}
